digraph "Projet_session.Rectangle.update"
{
 // LATEX_PDF_SIZE
  edge [fontname="Helvetica",fontsize="10",labelfontname="Helvetica",labelfontsize="10"];
  node [fontname="Helvetica",fontsize="10",shape=record];
  rankdir="LR";
  Node1 [label="Projet_session.Rectangle.update",height=0.2,width=0.4,color="black", fillcolor="grey75", style="filled", fontcolor="black",tooltip=" "];
  Node1 -> Node2 [color="midnightblue",fontsize="10",style="solid",fontname="Helvetica"];
  Node2 [label="Projet_session.Rectangle.update\lCoord",height=0.2,width=0.4,color="black", fillcolor="white", style="filled",URL="$class_projet__session_1_1_rectangle.html#aa1bfa75bfaf2526e21f70d313ed7882d",tooltip=" "];
}
