digraph "Projet_session.Camera.getLocation"
{
 // LATEX_PDF_SIZE
  edge [fontname="Helvetica",fontsize="10",labelfontname="Helvetica",labelfontsize="10"];
  node [fontname="Helvetica",fontsize="10",shape=record];
  rankdir="RL";
  Node1 [label="Projet_session.Camera.get\lLocation",height=0.2,width=0.4,color="black", fillcolor="grey75", style="filled", fontcolor="black",tooltip=" "];
  Node1 -> Node2 [dir="back",color="midnightblue",fontsize="10",style="solid",fontname="Helvetica"];
  Node2 [label="Projet_session.display",height=0.2,width=0.4,color="black", fillcolor="white", style="filled",URL="$class_projet__session.html#a91ac524d90ad3887e229d98f75759410",tooltip=" "];
  Node2 -> Node3 [dir="back",color="midnightblue",fontsize="10",style="solid",fontname="Helvetica"];
  Node3 [label="Projet_session.draw",height=0.2,width=0.4,color="black", fillcolor="white", style="filled",URL="$class_projet__session.html#a3481dc50c308e0db2ddc2a28f55caf25",tooltip=" "];
  Node1 -> Node4 [dir="back",color="midnightblue",fontsize="10",style="solid",fontname="Helvetica"];
  Node4 [label="Projet_session.UpCommand.execute",height=0.2,width=0.4,color="black", fillcolor="white", style="filled",URL="$class_projet__session_1_1_up_command.html#a672dcc7af641c907ab047bbadd4b6709",tooltip=" "];
  Node1 -> Node5 [dir="back",color="midnightblue",fontsize="10",style="solid",fontname="Helvetica"];
  Node5 [label="Projet_session.DownCommand.execute",height=0.2,width=0.4,color="black", fillcolor="white", style="filled",URL="$class_projet__session_1_1_down_command.html#aa4eb057d0cac4555f3644e533ee1f9f4",tooltip=" "];
  Node1 -> Node6 [dir="back",color="midnightblue",fontsize="10",style="solid",fontname="Helvetica"];
  Node6 [label="Projet_session.LeftCommand.execute",height=0.2,width=0.4,color="black", fillcolor="white", style="filled",URL="$class_projet__session_1_1_left_command.html#ab6cb66a7e5e77e777ef9be26e60e2d98",tooltip=" "];
  Node1 -> Node7 [dir="back",color="midnightblue",fontsize="10",style="solid",fontname="Helvetica"];
  Node7 [label="Projet_session.RightCommand.execute",height=0.2,width=0.4,color="black", fillcolor="white", style="filled",URL="$class_projet__session_1_1_right_command.html#af7314a5b78918d6c5b1c55543feb4878",tooltip=" "];
}
