digraph "Projet_session.Mover"
{
 // LATEX_PDF_SIZE
  edge [fontname="Helvetica",fontsize="10",labelfontname="Helvetica",labelfontsize="10"];
  node [fontname="Helvetica",fontsize="10",shape=record];
  Node1 [label="Projet_session.Mover",height=0.2,width=0.4,color="black", fillcolor="grey75", style="filled", fontcolor="black",tooltip=" "];
  Node2 -> Node1 [dir="back",color="midnightblue",fontsize="10",style="solid",fontname="Helvetica"];
  Node2 [label="Projet_session.GraphicObject",height=0.2,width=0.4,color="black", fillcolor="white", style="filled",URL="$class_projet__session_1_1_graphic_object.html",tooltip=" "];
  Node3 -> Node1 [dir="back",color="darkorchid3",fontsize="10",style="dashed",label=" state" ,fontname="Helvetica"];
  Node3 [label="Projet_session.State",height=0.2,width=0.4,color="black", fillcolor="white", style="filled",URL="$class_projet__session_1_1_state.html",tooltip=" "];
  Node4 -> Node3 [dir="back",color="darkorchid3",fontsize="10",style="dashed",label=" etat" ,fontname="Helvetica"];
  Node4 [label="Projet_session.IState",height=0.2,width=0.4,color="black", fillcolor="white", style="filled",URL="$interface_projet__session_1_1_i_state.html",tooltip=" "];
}
