digraph "Projet_session.draw"
{
 // LATEX_PDF_SIZE
  edge [fontname="Helvetica",fontsize="10",labelfontname="Helvetica",labelfontsize="10"];
  node [fontname="Helvetica",fontsize="10",shape=record];
  rankdir="LR";
  Node1 [label="Projet_session.draw",height=0.2,width=0.4,color="black", fillcolor="grey75", style="filled", fontcolor="black",tooltip=" "];
  Node1 -> Node2 [color="midnightblue",fontsize="10",style="solid",fontname="Helvetica"];
  Node2 [label="Projet_session.display",height=0.2,width=0.4,color="black", fillcolor="white", style="filled",URL="$class_projet__session.html#a91ac524d90ad3887e229d98f75759410",tooltip=" "];
  Node2 -> Node3 [color="midnightblue",fontsize="10",style="solid",fontname="Helvetica"];
  Node3 [label="Projet_session.Personnage.display",height=0.2,width=0.4,color="black", fillcolor="white", style="filled",URL="$class_projet__session_1_1_personnage.html#a279147fdcfe77c7d226568baf4045943",tooltip=" "];
  Node2 -> Node4 [color="midnightblue",fontsize="10",style="solid",fontname="Helvetica"];
  Node4 [label="Projet_session.displayFlock",height=0.2,width=0.4,color="black", fillcolor="white", style="filled",URL="$class_projet__session.html#a41d18dac6666812f58600484eee74a21",tooltip=" "];
  Node2 -> Node5 [color="midnightblue",fontsize="10",style="solid",fontname="Helvetica"];
  Node5 [label="Projet_session.MapRow.getCell",height=0.2,width=0.4,color="black", fillcolor="white", style="filled",URL="$class_projet__session_1_1_map_row.html#a06e1708aec456baf7e60d791c839966c",tooltip=" "];
  Node2 -> Node6 [color="midnightblue",fontsize="10",style="solid",fontname="Helvetica"];
  Node6 [label="Projet_session.Camera.get\lLocation",height=0.2,width=0.4,color="black", fillcolor="white", style="filled",URL="$class_projet__session_1_1_camera.html#a9ccc0d784b395a227352ab626919f873",tooltip=" "];
  Node2 -> Node7 [color="midnightblue",fontsize="10",style="solid",fontname="Helvetica"];
  Node7 [label="Projet_session.TileMap.getRow",height=0.2,width=0.4,color="black", fillcolor="white", style="filled",URL="$class_projet__session_1_1_tile_map.html#af4169b46ac2e11d37f09fb4782dd05e1",tooltip=" "];
  Node2 -> Node8 [color="midnightblue",fontsize="10",style="solid",fontname="Helvetica"];
  Node8 [label="Projet_session.Tile.getSource\lRectangle",height=0.2,width=0.4,color="black", fillcolor="white", style="filled",URL="$class_projet__session_1_1_tile.html#a5f4cb399252a2e22f086d714ce6a1ae0",tooltip=" "];
  Node8 -> Node9 [color="midnightblue",fontsize="10",style="solid",fontname="Helvetica"];
  Node9 [label="Projet_session.Rectangle.setWH",height=0.2,width=0.4,color="black", fillcolor="white", style="filled",URL="$class_projet__session_1_1_rectangle.html#a1da7182957139dfa480180e4460f59f0",tooltip=" "];
  Node9 -> Node10 [color="midnightblue",fontsize="10",style="solid",fontname="Helvetica"];
  Node10 [label="Projet_session.Rectangle.update\lCoord",height=0.2,width=0.4,color="black", fillcolor="white", style="filled",URL="$class_projet__session_1_1_rectangle.html#aa1bfa75bfaf2526e21f70d313ed7882d",tooltip=" "];
  Node8 -> Node11 [color="midnightblue",fontsize="10",style="solid",fontname="Helvetica"];
  Node11 [label="Projet_session.Rectangle.setXY",height=0.2,width=0.4,color="black", fillcolor="white", style="filled",URL="$class_projet__session_1_1_rectangle.html#a60fcb5abc6f6cf50b2eb5e8b59573cc7",tooltip=" "];
  Node11 -> Node10 [color="midnightblue",fontsize="10",style="solid",fontname="Helvetica"];
  Node2 -> Node12 [color="midnightblue",fontsize="10",style="solid",fontname="Helvetica"];
  Node12 [label="Projet_session.MapCell.get\lTileID",height=0.2,width=0.4,color="black", fillcolor="white", style="filled",URL="$class_projet__session_1_1_map_cell.html#a13b2add25557846daf3441658caf25f0",tooltip=" "];
  Node2 -> Node13 [color="midnightblue",fontsize="10",style="solid",fontname="Helvetica"];
  Node13 [label="Projet_session.Tile.getTile\lSetTexture",height=0.2,width=0.4,color="black", fillcolor="white", style="filled",URL="$class_projet__session_1_1_tile.html#a0e21e87abfa596176881d08e8f617f79",tooltip=" "];
  Node2 -> Node14 [color="midnightblue",fontsize="10",style="solid",fontname="Helvetica"];
  Node14 [label="Projet_session.keyPressed",height=0.2,width=0.4,color="black", fillcolor="white", style="filled",URL="$class_projet__session.html#a308ab8b1d1e6bad7063d5440fdaaa7fb",tooltip=" "];
  Node14 -> Node15 [color="midnightblue",fontsize="10",style="solid",fontname="Helvetica"];
  Node15 [label="Projet_session.RemoteControl.\lInputHandler",height=0.2,width=0.4,color="black", fillcolor="white", style="filled",URL="$class_projet__session_1_1_remote_control.html#af60b34379a9bb51cffd7ea8686cdcf7c",tooltip=" "];
  Node2 -> Node16 [color="midnightblue",fontsize="10",style="solid",fontname="Helvetica"];
  Node16 [label="Projet_session.Personnage.setMove",height=0.2,width=0.4,color="black", fillcolor="white", style="filled",URL="$class_projet__session_1_1_personnage.html#a11a5384bdcd2fadd6e495b46d17ad7f2",tooltip=" "];
  Node2 -> Node17 [color="midnightblue",fontsize="10",style="solid",fontname="Helvetica"];
  Node17 [label="Projet_session.Personnage.update",height=0.2,width=0.4,color="black", fillcolor="white", style="filled",URL="$class_projet__session_1_1_personnage.html#a91463d62951396cd23e30df3cb6bbf62",tooltip=" "];
  Node17 -> Node18 [color="midnightblue",fontsize="10",style="solid",fontname="Helvetica"];
  Node18 [label="Projet_session.Personnage.check\lEdges",height=0.2,width=0.4,color="black", fillcolor="white", style="filled",URL="$class_projet__session_1_1_personnage.html#a43922b0e5f7f16f121dca2cd3305b5d8",tooltip=" "];
  Node1 -> Node19 [color="midnightblue",fontsize="10",style="solid",fontname="Helvetica"];
  Node19 [label="Projet_session.update",height=0.2,width=0.4,color="black", fillcolor="white", style="filled",URL="$class_projet__session.html#a25da50327b90b64831bf293175e4ab57",tooltip=" "];
  Node19 -> Node20 [color="midnightblue",fontsize="10",style="solid",fontname="Helvetica"];
  Node20 [label="Projet_session.updateFlock",height=0.2,width=0.4,color="black", fillcolor="white", style="filled",URL="$class_projet__session.html#a48d0f0369a3063712c74b571005789f3",tooltip=" "];
}
